Processing experts shortlists
…
We provide names to this list of dataframes. We name them by expert name:

names(dfs_experts) <- experts_from_gssheets

We save a copy of the shortlists locally as.tsv files in the directory ./data/raw/:

map(names(dfs_experts), ~ write_tsv(dfs_experts[[.]], 
                                    path = paste0("../data/raw/ias_UKOT_vertebrates_", ., ".tsv")))

An example from the shortlist of one expert:

dfs_experts$Tim_Adriaens

## # A tibble: 32 x 3
##    species                   UKOTs                  `remarks (optional)`
##    <chr>                     <chr>                  <chr>               
##  1 Acridotheres cristatellus AI, BM, KY, MS, TC, VG <NA>                
##  2 Acridotheres tristis      AI, BM, KY, MS, TC, VG <NA>                
##  3 Anolis carolinensis       AI, BM, MS, TC, VG     <NA>                
##  4 Anolis equestris          AI, BM, MS, TC, VG     <NA>                
##  5 Anolis grahami            AI, KY, MS, TC, VG     <NA>                
##  6 Anolis sagrei             AI, BM, MS             <NA>                
##  7 Aratinga erythrogenys     AI, BM, MS, TC, VG     <NA>                
##  8 Boiga irregularis         AI, BM, KY, MS, TC, VG <NA>                
##  9 Canis familiaris          AI, BM, MS, TC, VG     <NA>                
## 10 Capra hircus              AI, BM, KY, MS, TC     <NA>                
## # ... with 22 more rows
…
Again, the column experts can help in case some doubts arise. In case of typos or synonyms, these species should be removed or modified in order to maintain consistency between longlist and (merged) shortlist, otherwise they should be added to the longlist.

The combined shorlist: an overview

Based on this combined shortlist, the experts could start scoring process. However, it could be helpful to provide an exploratory overview to the team leader.

Which (unique) species are present in the combined shorlist?

species_list <- combined_counts_species %>%
  arrange(desc(n)) %>%
  distinct(species)
species_list

## # A tibble: 99 x 1
##    species                
##    <chr>                  
##  1 Capra hircus           
##  2 Myiopsitta monachus    
##  3 Herpestes auropunctatus
##  4 Iguana iguana          
##  5 Molothrus bonariensis  
##  6 Pantherophis guttatus  
##  7 Procyon lotor          
##  8 Anolis carolinensis    
##  9 Anolis equestris       
## 10 Aratinga erythrogenys  
## # ... with 89 more rows

To a better overview, lets spread such list by UKOTs:

merged_species_list_spread <- spread(combined_counts_species, 
                                     key = UKOTs,
                                     value = n)
merged_species_list_spread

## # A tibble: 134 x 9
##    species    experts      remarks        AI    BM    KY    MS    TC    VG
##    <chr>      <chr>        <chr>       <int> <int> <int> <int> <int> <int>
##  1 Acridothe~ Tim_Adriaen~ ""              2     2     2     2     2     2
##  2 Acridothe~ Tim_Adriaen~ interislan~     2     2     2     2     2     2
##  3 Amazona a~ Fred_Burton~ ""              2     2     2     2     2     2
##  4 Amazona o~ Fred_Burton~ Hybridizat~     2     2    NA     2     2     2
##  5 Amazona s~ Bryan_Manco  ""             NA    NA    NA    NA     1    NA
##  6 Anas plat~ Fred_Burton  ""              1    NA    NA     1     1     1
##  7 Anolis ca~ Elena_Trica~ ""             NA    NA     1    NA    NA    NA
##  8 Anolis ca~ Tim_Adriaen~ moderate i~     2    NA    NA    NA    NA    NA
##  9 Anolis ca~ Tim_Adriaen~ moderate i~    NA     3    NA     3     3     3
## 10 Anolis eq~ Jason_Berry  ""             NA    NA     1    NA    NA    NA
## # ... with 124 more rows

And save it:

write_tsv(merged_species_list_spread, path = "../data/output/merged_species_list_spread.tsv")

It could be also important to have an overview of species combined with the number of experts who judge them present in the horizon. In case the same species has different number of assessors for different UKOTs, take the maximum.

overview_species <- combined_counts_species %>% 
  group_by(species) %>% 
  summarize(n_experts = max(n)) %>%
  arrange(desc(n_experts))
overview_species

## # A tibble: 99 x 2
##    species                 n_experts
##    <chr>                       <dbl>
##  1 Capra hircus                   5.
##  2 Myiopsitta monachus            5.
##  3 Herpestes auropunctatus        4.
##  4 Iguana iguana                  4.
##  5 Molothrus bonariensis          4.
##  6 Pantherophis guttatus          4.
##  7 Procyon lotor                  4.
##  8 Anolis carolinensis            3.
##  9 Anolis equestris               3.
## 10 Aratinga erythrogenys          3.
## # ... with 89 more rows
…
